{
  "collectionName": "components_action_field_action_fields",
  "info": {
    "name": "actionField",
    "icon": "align-center"
  },
  "options": {},
  "attributes": {
    "desscription": {
      "type": "text"
    },
    "image": {
      "model": "file",
      "via": "related",
      "allowedTypes": [
        "images",
        "files",
        "videos"
      ],
      "plugin": "upload",
      "required": false,
      "pluginOptions": {}
    }
  }
}
