{
  "collectionName": "components_payment_block_payment_blocks",
  "info": {
    "name": "paymentBlock",
    "icon": "allergies"
  },
  "options": {},
  "attributes": {
    "title": {
      "type": "string"
    },
    "dataWithIcon": {
      "type": "component",
      "repeatable": true,
      "component": "block-with-icon.data-with-icon"
    }
  }
}
