{
  "collectionName": "components_number_number_fields",
  "info": {
    "name": "number-field",
    "icon": "ankh"
  },
  "options": {},
  "attributes": {
    "prefix": {
      "type": "string"
    },
    "number": {
      "type": "string"
    }
  }
}
