{
  "collectionName": "components_getting_order_getting_orders",
  "info": {
    "name": "gettingOrder",
    "icon": "align-justify",
    "description": ""
  },
  "options": {},
  "attributes": {
    "title": {
      "type": "string"
    },
    "dataWithIcon": {
      "type": "component",
      "repeatable": true,
      "component": "block-with-icon.data-with-icon"
    }
  }
}
